[
  {
    "gender": "male",
    "age": 20.5,
    "bodyWeightUnit": "kg",
    "exercise": "Deadlift",
    "bodyWeight": 85,
    "lift": 150,
    "liftUnit": "kg",
    "repetitions": 8,
    "status": "valid"
  },
  {
    "gender": "male",
    "age": 20.5,
    "bodyWeightUnit": "kg",
    "exercise": "Deadlift",
    "bodyWeight": 85,
    "lift": 0,
    "liftUnit": "kg",
    "repetitions": 8,
    "status": "invalid"
  },
  {
    "gender": "male",
    "age": 20.5,
    "bodyWeightUnit": "kg",
    "exercise": "Deadlift",
    "bodyWeight": 85,
    "lift": 1501,
    "liftUnit": "kg",
    "repetitions": 8,
    "status": "invalid"
  },
  {
    "gender": "male",
    "age": 20.5,
    "bodyWeightUnit": "kg",
    "exercise": "Deadlift",
    "bodyWeight": 4,
    "lift": 150,
    "liftUnit": "kg",
    "repetitions": 8,
    "status": "invalid"
  },
  {
    "gender": "male",
    "age": 20.5,
    "bodyWeightUnit": "kg",
    "exercise": "Deadlift",
    "bodyWeight": 401,
    "lift": 150,
    "liftUnit": "kg",
    "repetitions": 8,
    "status": "invalid"
  },
  {
    "gender": "male",
    "age": 20.5,
    "bodyWeightUnit": "kg",
    "exercise": "Deadlift",
    "bodyWeight": 85,
    "lift": 150,
    "liftUnit": "kg",
    "repetitions": 0,
    "status": "invalid"
  },
  {
    "gender": "male",
    "age": 20.5,
    "bodyWeightUnit": "kg",
    "exercise": "Deadlift",
    "bodyWeight": 85,
    "lift": 150,
    "liftUnit": "kg",
    "repetitions": 501,
    "status": "invalid"
  }
]